[{
  "id": 1,
  "firstName": "Eula",
  "middleName": "Bernie",
  "lastName": "De Bruyn",
  "email": "bdebruyn0@themeforest.net",
  "gender": "Female",
  "address": {
    "street": "Onsgard",
    "city": "Richmond",
    "province": "British Columbia",
    "country": "Canada"
  },
  "phone": {
    "mobile": "1-(760)433-8148",
    "home": "1-(703)729-9688",
    "work": "1-(571)490-1841"
  }
}, {
  "id": 2,
  "firstName": "Northrop",
  "middleName": "Lockwood",
  "lastName": "Geall",
  "email": "lgeall1@devhub.com",
  "gender": "Male",
  "address": {
    "street": "Westerfield",
    "city": "Rochester",
    "province": "New York",
    "country": "United States"
  },
  "phone": {
    "mobile": "1-(315)520-6168",
    "home": "1-(928)305-4442",
    "work": "1-(812)633-2126"
  }
}, {
  "id": 3,
  "firstName": "Aurora",
  "middleName": "Robina",
  "lastName": "Sudlow",
  "email": "rsudlow2@infoseek.co.jp",
  "gender": "Female",
  "address": {
    "street": "Blaine",
    "city": "Bridgewater",
    "province": "Nova Scotia",
    "country": "Canada"
  },
  "phone": {
    "mobile": "1-(867)686-8269",
    "home": "1-(515)665-9542",
    "work": "1-(209)196-3671"
  }
}, {
  "id": 4,
  "firstName": "Jeffy",
  "middleName": "Lamont",
  "lastName": "Sprowson",
  "email": "lsprowson3@mayoclinic.com",
  "gender": "Male",
  "address": {
    "street": "High Crossing",
    "city": "Aldergrove",
    "province": "British Columbia",
    "country": "Canada"
  },
  "phone": {
    "mobile": "1-(912)631-4016",
    "home": "1-(608)470-0625",
    "work": "1-(903)305-9391"
  }
}, {
  "id": 5,
  "firstName": "Toinette",
  "middleName": "Madonna",
  "lastName": "Dybald",
  "email": "mdybald4@toplist.cz",
  "gender": "Female",
  "address": {
    "street": "Arkansas",
    "city": "Detroit",
    "province": "Michigan",
    "country": "United States"
  },
  "phone": {
    "mobile": "1-(313)236-3767",
    "home": "1-(832)165-0538",
    "work": "1-(217)414-2949"
  }
}, {
  "id": 6,
  "firstName": "Hugo",
  "middleName": "Calvin",
  "lastName": "Mariner",
  "email": "cmariner5@toplist.cz",
  "gender": "Male",
  "address": {
    "street": "Pine View",
    "city": "Roblin",
    "province": "Manitoba",
    "country": "Canada"
  },
  "phone": {
    "mobile": "1-(536)782-7551",
    "home": "1-(941)454-7137",
    "work": "1-(215)205-3721"
  }
}, {
  "id": 7,
  "firstName": "Talbot",
  "middleName": "Russell",
  "lastName": "Bard",
  "email": "rbard6@vkontakte.ru",
  "gender": "Male",
  "address": {
    "street": "Randy",
    "city": "Shreveport",
    "province": "Louisiana",
    "country": "United States"
  },
  "phone": {
    "mobile": "1-(318)561-0519",
    "home": "1-(815)655-8354",
    "work": "1-(520)536-4239"
  }
}, {
  "id": 8,
  "firstName": "Zilvia",
  "middleName": "Allina",
  "lastName": "Emblen",
  "email": "aemblen7@youtu.be",
  "gender": "Female",
  "address": {
    "street": "6th",
    "city": "San Jose",
    "province": "California",
    "country": "United States"
  },
  "phone": {
    "mobile": "1-(408)630-5465",
    "home": "1-(415)177-9942",
    "work": "1-(428)716-6825"
  }
}, {
  "id": 9,
  "firstName": "Alethea",
  "middleName": "Anna-diane",
  "lastName": "Fountaine",
  "email": "afountaine8@simplemachines.org",
  "gender": "Female",
  "address": {
    "street": "Talmadge",
    "city": "Austin",
    "province": "Texas",
    "country": "United States"
  },
  "phone": {
    "mobile": "1-(512)502-0450",
    "home": "1-(979)315-2883",
    "work": "1-(847)625-8749"
  }
}, {
  "id": 10,
  "firstName": "Pennie",
  "middleName": "Geno",
  "lastName": "Giamitti",
  "email": "ggiamitti9@bbc.co.uk",
  "gender": "Male",
  "address": {
    "street": "Forest",
    "city": "Boucherville",
    "province": "Québec",
    "country": "Canada"
  },
  "phone": {
    "mobile": "1-(148)405-1206",
    "home": "1-(619)627-3776",
    "work": "1-(384)733-3387"
  }
}, {
  "id": 11,
  "firstName": "Dayna",
  "middleName": "Alaine",
  "lastName": "Trammel",
  "email": "atrammela@elegantthemes.com",
  "gender": "Female",
  "address": {
    "street": "Amoth",
    "city": "Seattle",
    "province": "Washington",
    "country": "United States"
  },
  "phone": {
    "mobile": "1-(206)592-8933",
    "home": "1-(515)682-4195",
    "work": "1-(759)610-5662"
  }
}, {
  "id": 12,
  "firstName": "Stu",
  "middleName": "Kain",
  "lastName": "Upchurch",
  "email": "kupchurchb@google.ru",
  "gender": "Male",
  "address": {
    "street": "Schiller",
    "city": "Mississauga",
    "province": "Ontario",
    "country": "Canada"
  },
  "phone": {
    "mobile": "1-(614)886-3576",
    "home": "1-(117)699-6832",
    "work": "1-(712)653-0022"
  }
}, {
  "id": 13,
  "firstName": "Modesta",
  "middleName": "Lexine",
  "lastName": "Botton",
  "email": "lbottonc@quantcast.com",
  "gender": "Female",
  "address": {
    "street": "Saint Paul",
    "city": "Saint Paul",
    "province": "Minnesota",
    "country": "United States"
  },
  "phone": {
    "mobile": "1-(651)302-6122",
    "home": "1-(812)941-6373",
    "work": "1-(612)971-5556"
  }
}, {
  "id": 14,
  "firstName": "Caril",
  "middleName": "Novelia",
  "lastName": "Claye",
  "email": "nclayed@tinyurl.com",
  "gender": "Female",
  "address": {
    "street": "Laurel",
    "city": "Omaha",
    "province": "Nebraska",
    "country": "United States"
  },
  "phone": {
    "mobile": "1-(402)904-6627",
    "home": "1-(404)728-9727",
    "work": "1-(805)591-1569"
  }
}, {
  "id": 15,
  "firstName": "Padraig",
  "middleName": "Frederico",
  "lastName": "Drioli",
  "email": "fdriolie@ucsd.edu",
  "gender": "Male",
  "address": {
    "street": "Grim",
    "city": "Sainte-Thérèse",
    "province": "Québec",
    "country": "Canada"
  },
  "phone": {
    "mobile": "1-(802)477-8262",
    "home": "1-(816)116-4190",
    "work": "1-(561)177-5389"
  }
}, {
  "id": 16,
  "firstName": "Kennith",
  "middleName": "Tailor",
  "lastName": "Crannage",
  "email": "tcrannagef@paginegialle.it",
  "gender": "Male",
  "address": {
    "street": "Wayridge",
    "city": "Wilmington",
    "province": "Delaware",
    "country": "United States"
  },
  "phone": {
    "mobile": "1-(302)270-7694",
    "home": "1-(864)558-8125",
    "work": "1-(813)792-9799"
  }
}, {
  "id": 17,
  "firstName": "Maria",
  "middleName": "Sella",
  "lastName": "Lambertz",
  "email": "slambertzg@gmpg.org",
  "gender": "Female",
  "address": {
    "street": "Schurz",
    "city": "Norfolk",
    "province": "Virginia",
    "country": "United States"
  },
  "phone": {
    "mobile": "1-(757)779-7235",
    "home": "1-(373)960-7483",
    "work": "1-(605)274-6463"
  }
}, {
  "id": 18,
  "firstName": "Brockie",
  "middleName": "Lonnie",
  "lastName": "Alger",
  "email": "lalgerh@xrea.com",
  "gender": "Male",
  "address": {
    "street": "Helena",
    "city": "Warwick",
    "province": "Québec",
    "country": "Canada"
  },
  "phone": {
    "mobile": "1-(206)430-8914",
    "home": "1-(311)492-5933",
    "work": "1-(816)229-3019"
  }
}, {
  "id": 19,
  "firstName": "Geoff",
  "middleName": "Elwood",
  "lastName": "Mousley",
  "email": "emousleyi@msu.edu",
  "gender": "Male",
  "address": {
    "street": "Onsgard",
    "city": "Durham",
    "province": "North Carolina",
    "country": "United States"
  },
  "phone": {
    "mobile": "1-(919)797-6654",
    "home": "1-(443)356-7910",
    "work": "1-(317)385-5659"
  }
}, {
  "id": 20,
  "firstName": "Clark",
  "middleName": "Reginald",
  "lastName": "Sidnall",
  "email": "rsidnallj@mozilla.org",
  "gender": "Male",
  "address": {
    "street": "Dawn",
    "city": "Medicine Hat",
    "province": "Alberta",
    "country": "Canada"
  },
  "phone": {
    "mobile": "1-(770)549-1326",
    "home": "1-(706)908-5603",
    "work": "1-(519)982-7169"
  }
}, {
  "id": 21,
  "firstName": "Bearnard",
  "middleName": "Giordano",
  "lastName": "Biggins",
  "email": "gbigginsk@google.com.hk",
  "gender": "Male",
  "address": {
    "street": "Miller",
    "city": "Beaverton",
    "province": "Oregon",
    "country": "United States"
  },
  "phone": {
    "mobile": "1-(503)236-6081",
    "home": "1-(757)899-0529",
    "work": "1-(190)350-4819"
  }
}, {
  "id": 22,
  "firstName": "Vonnie",
  "middleName": "Raven",
  "lastName": "Virgoe",
  "email": "rvirgoel@newsvine.com",
  "gender": "Female",
  "address": {
    "street": "Porter",
    "city": "Bells Corners",
    "province": "Ontario",
    "country": "Canada"
  },
  "phone": {
    "mobile": "1-(765)484-9761",
    "home": "1-(813)360-2163",
    "work": "1-(205)340-4537"
  }
}, {
  "id": 23,
  "firstName": "Auberta",
  "middleName": "Leeanne",
  "lastName": "Pollastrino",
  "email": "lpollastrinom@bing.com",
  "gender": "Female",
  "address": {
    "street": "Fulton",
    "city": "Syracuse",
    "province": "New York",
    "country": "United States"
  },
  "phone": {
    "mobile": "1-(315)740-0276",
    "home": "1-(344)639-6872",
    "work": "1-(305)636-6287"
  }
}, {
  "id": 24,
  "firstName": "Jacky",
  "middleName": "Scotti",
  "lastName": "Brackley",
  "email": "sbrackleyn@surveymonkey.com",
  "gender": "Male",
  "address": {
    "street": "Reindahl",
    "city": "Racine",
    "province": "Wisconsin",
    "country": "United States"
  },
  "phone": {
    "mobile": "1-(262)429-7955",
    "home": "1-(937)745-8100",
    "work": "1-(786)710-3073"
  }
}, {
  "id": 25,
  "firstName": "Hazlett",
  "middleName": "Tadd",
  "lastName": "Carnalan",
  "email": "tcarnalano@google.com.hk",
  "gender": "Male",
  "address": {
    "street": "Basil",
    "city": "Garland",
    "province": "Texas",
    "country": "United States"
  },
  "phone": {
    "mobile": "1-(214)157-2694",
    "home": "1-(757)221-0644",
    "work": "1-(372)712-5403"
  }
}, {
  "id": 26,
  "firstName": "Kylen",
  "middleName": "Janeva",
  "lastName": "D'Aulby",
  "email": "jdaulbyp@so-net.ne.jp",
  "gender": "Female",
  "address": {
    "street": "Havey",
    "city": "New York City",
    "province": "New York",
    "country": "United States"
  },
  "phone": {
    "mobile": "1-(646)792-9328",
    "home": "1-(214)768-3569",
    "work": "1-(887)232-2833"
  }
}, {
  "id": 27,
  "firstName": "Gerard",
  "middleName": "Luther",
  "lastName": "Campanelle",
  "email": "lcampanelleq@pbs.org",
  "gender": "Male",
  "address": {
    "street": "Eliot",
    "city": "Joliet",
    "province": "Illinois",
    "country": "United States"
  },
  "phone": {
    "mobile": "1-(815)778-7526",
    "home": "1-(594)276-3267",
    "work": "1-(901)198-7318"
  }
}, {
  "id": 28,
  "firstName": "Donny",
  "middleName": "Jess",
  "lastName": "Hiorn",
  "email": "jhiornr@virginia.edu",
  "gender": "Female",
  "address": {
    "street": "Melvin",
    "city": "Seattle",
    "province": "Washington",
    "country": "United States"
  },
  "phone": {
    "mobile": "1-(206)613-1743",
    "home": "1-(918)333-9727",
    "work": "1-(954)525-8078"
  }
}, {
  "id": 29,
  "firstName": "Sawyere",
  "middleName": "Hunfredo",
  "lastName": "Essame",
  "email": "hessames@over-blog.com",
  "gender": "Male",
  "address": {
    "street": "Saint Paul",
    "city": "Burbank",
    "province": "California",
    "country": "United States"
  },
  "phone": {
    "mobile": "1-(818)127-0579",
    "home": "1-(661)730-9093",
    "work": "1-(592)892-1062"
  }
}, {
  "id": 30,
  "firstName": "Jacquelyn",
  "middleName": "Caye",
  "lastName": "Massingham",
  "email": "cmassinghamt@pagesperso-orange.fr",
  "gender": "Female",
  "address": {
    "street": "Mcguire",
    "city": "San Jose",
    "province": "California",
    "country": "United States"
  },
  "phone": {
    "mobile": "1-(408)333-6680",
    "home": "1-(414)798-5363",
    "work": "1-(727)315-8985"
  }
}, {
  "id": 31,
  "firstName": "Iago",
  "middleName": "Danie",
  "lastName": "Yushmanov",
  "email": "dyushmanovu@studiopress.com",
  "gender": "Male",
  "address": {
    "street": "Mosinee",
    "city": "Kansas City",
    "province": "Missouri",
    "country": "United States"
  },
  "phone": {
    "mobile": "1-(816)132-5175",
    "home": "1-(917)132-3713",
    "work": "1-(859)259-4500"
  }
}, {
  "id": 32,
  "firstName": "Donia",
  "middleName": "Aprilette",
  "lastName": "Lewis",
  "email": "alewisv@weibo.com",
  "gender": "Female",
  "address": {
    "street": "Armistice",
    "city": "Durham",
    "province": "North Carolina",
    "country": "United States"
  },
  "phone": {
    "mobile": "1-(919)474-6780",
    "home": "1-(867)198-9413",
    "work": "1-(504)530-7060"
  }
}, {
  "id": 33,
  "firstName": "Tamera",
  "middleName": "Jojo",
  "lastName": "Sullly",
  "email": "jsulllyw@hubpages.com",
  "gender": "Female",
  "address": {
    "street": "Mallard",
    "city": "Cincinnati",
    "province": "Ohio",
    "country": "United States"
  },
  "phone": {
    "mobile": "1-(513)963-4695",
    "home": "1-(402)392-9740",
    "work": "1-(711)976-8075"
  }
}, {
  "id": 34,
  "firstName": "Richardo",
  "middleName": "Jeramie",
  "lastName": "Hargreaves",
  "email": "jhargreavesx@constantcontact.com",
  "gender": "Male",
  "address": {
    "street": "Mifflin",
    "city": "Bethlehem",
    "province": "Pennsylvania",
    "country": "United States"
  },
  "phone": {
    "mobile": "1-(267)704-7338",
    "home": "1-(628)503-9532",
    "work": "1-(952)357-6130"
  }
}, {
  "id": 35,
  "firstName": "Donella",
  "middleName": "Gretta",
  "lastName": "Stollenhof",
  "email": "gstollenhofy@over-blog.com",
  "gender": "Female",
  "address": {
    "street": "Village Green",
    "city": "Whittier",
    "province": "California",
    "country": "United States"
  },
  "phone": {
    "mobile": "1-(562)754-2269",
    "home": "1-(816)515-6442",
    "work": "1-(319)935-1141"
  }
}, {
  "id": 36,
  "firstName": "Llywellyn",
  "middleName": "Armando",
  "lastName": "Swainger",
  "email": "aswaingerz@vkontakte.ru",
  "gender": "Male",
  "address": {
    "street": "Graceland",
    "city": "Aurora",
    "province": "Colorado",
    "country": "United States"
  },
  "phone": {
    "mobile": "1-(303)984-5997",
    "home": "1-(636)791-2322",
    "work": "1-(502)524-8389"
  }
}, {
  "id": 37,
  "firstName": "Garfield",
  "middleName": "Clemens",
  "lastName": "Wahncke",
  "email": "cwahncke10@meetup.com",
  "gender": "Male",
  "address": {
    "street": "Northfield",
    "city": "Austin",
    "province": "Texas",
    "country": "United States"
  },
  "phone": {
    "mobile": "1-(512)417-5872",
    "home": "1-(910)928-1670",
    "work": "1-(224)139-5297"
  }
}, {
  "id": 38,
  "firstName": "Reece",
  "middleName": "Claudian",
  "lastName": "Ellesworth",
  "email": "cellesworth11@uol.com.br",
  "gender": "Male",
  "address": {
    "street": "Starling",
    "city": "Saint-Bruno-de-Guigues",
    "province": "Québec",
    "country": "Canada"
  },
  "phone": {
    "mobile": "1-(622)856-9120",
    "home": "1-(304)246-2731",
    "work": "1-(858)574-2756"
  }
}, {
  "id": 39,
  "firstName": "Maryann",
  "middleName": "Florida",
  "lastName": "Murcutt",
  "email": "fmurcutt12@exblog.jp",
  "gender": "Female",
  "address": {
    "street": "Shopko",
    "city": "Kentville",
    "province": "Nova Scotia",
    "country": "Canada"
  },
  "phone": {
    "mobile": "1-(696)347-1532",
    "home": "1-(913)204-4273",
    "work": "1-(533)617-9034"
  }
}, {
  "id": 40,
  "firstName": "Belinda",
  "middleName": "Babette",
  "lastName": "Skeldinge",
  "email": "bskeldinge13@vinaora.com",
  "gender": "Female",
  "address": {
    "street": "Montana",
    "city": "Amarillo",
    "province": "Texas",
    "country": "United States"
  },
  "phone": {
    "mobile": "1-(806)568-2275",
    "home": "1-(512)142-4935",
    "work": "1-(702)378-8475"
  }
}, {
  "id": 41,
  "firstName": "Derril",
  "middleName": "Hurleigh",
  "lastName": "Busher",
  "email": "hbusher14@themeforest.net",
  "gender": "Male",
  "address": {
    "street": "Burrows",
    "city": "Topeka",
    "province": "Kansas",
    "country": "United States"
  },
  "phone": {
    "mobile": "1-(785)485-1968",
    "home": "1-(515)759-7786",
    "work": "1-(172)233-7414"
  }
}, {
  "id": 42,
  "firstName": "Lacy",
  "middleName": "Katharyn",
  "lastName": "Plank",
  "email": "kplank15@bluehost.com",
  "gender": "Female",
  "address": {
    "street": "Talmadge",
    "city": "Wichita",
    "province": "Kansas",
    "country": "United States"
  },
  "phone": {
    "mobile": "1-(316)137-4178",
    "home": "1-(205)413-9021",
    "work": "1-(301)652-4463"
  }
}, {
  "id": 43,
  "firstName": "Claude",
  "middleName": "Magda",
  "lastName": "Stuther",
  "email": "mstuther16@si.edu",
  "gender": "Female",
  "address": {
    "street": "Myrtle",
    "city": "Joliette",
    "province": "Québec",
    "country": "Canada"
  },
  "phone": {
    "mobile": "1-(372)374-2923",
    "home": "1-(305)813-3451",
    "work": "1-(339)167-2322"
  }
}, {
  "id": 44,
  "firstName": "Alfonso",
  "middleName": "Domenic",
  "lastName": "Gwilym",
  "email": "dgwilym17@bing.com",
  "gender": "Male",
  "address": {
    "street": "Packers",
    "city": "Dallas",
    "province": "Texas",
    "country": "United States"
  },
  "phone": {
    "mobile": "1-(214)136-9981",
    "home": "1-(812)952-1430",
    "work": "1-(219)207-5053"
  }
}, {
  "id": 45,
  "firstName": "Dalton",
  "middleName": "Orville",
  "lastName": "Riach",
  "email": "oriach18@ihg.com",
  "gender": "Male",
  "address": {
    "street": "Grim",
    "city": "Milwaukee",
    "province": "Wisconsin",
    "country": "United States"
  },
  "phone": {
    "mobile": "1-(414)877-1201",
    "home": "1-(615)707-1069",
    "work": "1-(202)321-8171"
  }
}, {
  "id": 46,
  "firstName": "Alexio",
  "middleName": "Anselm",
  "lastName": "Rojas",
  "email": "arojas19@123-reg.co.uk",
  "gender": "Male",
  "address": {
    "street": "Florence",
    "city": "Cincinnati",
    "province": "Ohio",
    "country": "United States"
  },
  "phone": {
    "mobile": "1-(513)540-9503",
    "home": "1-(682)500-2607",
    "work": "1-(813)351-4929"
  }
}, {
  "id": 47,
  "firstName": "Sabina",
  "middleName": "Theresita",
  "lastName": "Crosthwaite",
  "email": "tcrosthwaite1a@elegantthemes.com",
  "gender": "Female",
  "address": {
    "street": "Sycamore",
    "city": "Minneapolis",
    "province": "Minnesota",
    "country": "United States"
  },
  "phone": {
    "mobile": "1-(612)417-3942",
    "home": "1-(816)834-9900",
    "work": "1-(786)578-0010"
  }
}, {
  "id": 48,
  "firstName": "Ange",
  "middleName": "Nollie",
  "lastName": "Rean",
  "email": "nrean1b@baidu.com",
  "gender": "Male",
  "address": {
    "street": "Sullivan",
    "city": "Santa Rosa",
    "province": "California",
    "country": "United States"
  },
  "phone": {
    "mobile": "1-(707)470-7213",
    "home": "1-(504)106-9531",
    "work": "1-(515)617-9775"
  }
}, {
  "id": 49,
  "firstName": "Regan",
  "middleName": "Jacklyn",
  "lastName": "Morales",
  "email": "jmorales1c@walmart.com",
  "gender": "Female",
  "address": {
    "street": "American",
    "city": "Sacramento",
    "province": "California",
    "country": "United States"
  },
  "phone": {
    "mobile": "1-(916)869-1940",
    "home": "1-(232)647-6079",
    "work": "1-(205)970-8376"
  }
}, {
  "id": 50,
  "firstName": "Saraann",
  "middleName": "Madonna",
  "lastName": "Bennit",
  "email": "mbennit1d@mit.edu",
  "gender": "Female",
  "address": {
    "street": "Weeping Birch",
    "city": "Santa Barbara",
    "province": "California",
    "country": "United States"
  },
  "phone": {
    "mobile": "1-(805)836-8920",
    "home": "1-(402)540-6647",
    "work": "1-(213)333-4796"
  }
}, {
  "id": 51,
  "firstName": "Rubin",
  "middleName": "Russ",
  "lastName": "State",
  "email": "rstate1e@goo.ne.jp",
  "gender": "Male",
  "address": {
    "street": "Dawn",
    "city": "Pinellas Park",
    "province": "Florida",
    "country": "United States"
  },
  "phone": {
    "mobile": "1-(407)348-5198",
    "home": "1-(182)758-8708",
    "work": "1-(508)232-8940"
  }
}, {
  "id": 52,
  "firstName": "Helene",
  "middleName": "Dory",
  "lastName": "Hunston",
  "email": "dhunston1f@goodreads.com",
  "gender": "Female",
  "address": {
    "street": "Forest",
    "city": "Santa Rosa",
    "province": "California",
    "country": "United States"
  },
  "phone": {
    "mobile": "1-(707)689-3276",
    "home": "1-(954)921-3101",
    "work": "1-(302)238-9209"
  }
}, {
  "id": 53,
  "firstName": "Dorine",
  "middleName": "Laverna",
  "lastName": "Wohlers",
  "email": "lwohlers1g@fema.gov",
  "gender": "Female",
  "address": {
    "street": "Spenser",
    "city": "North Little Rock",
    "province": "Arkansas",
    "country": "United States"
  },
  "phone": {
    "mobile": "1-(501)760-0035",
    "home": "1-(806)465-9553",
    "work": "1-(915)631-5596"
  }
}, {
  "id": 54,
  "firstName": "Timoteo",
  "middleName": "Payton",
  "lastName": "Tankin",
  "email": "ptankin1h@hp.com",
  "gender": "Male",
  "address": {
    "street": "Lerdahl",
    "city": "Moosomin",
    "province": "Saskatchewan",
    "country": "Canada"
  },
  "phone": {
    "mobile": "1-(613)297-8606",
    "home": "1-(121)242-3240",
    "work": "1-(813)535-9743"
  }
}, {
  "id": 55,
  "firstName": "Shermy",
  "middleName": "Barbabas",
  "lastName": "Pretor",
  "email": "bpretor1i@studiopress.com",
  "gender": "Male",
  "address": {
    "street": "Packers",
    "city": "Santa Cruz",
    "province": "California",
    "country": "United States"
  },
  "phone": {
    "mobile": "1-(831)448-4064",
    "home": "1-(515)136-2246",
    "work": "1-(476)395-7939"
  }
}, {
  "id": 56,
  "firstName": "Jocelin",
  "middleName": "Danyelle",
  "lastName": "Gristock",
  "email": "dgristock1j@sogou.com",
  "gender": "Female",
  "address": {
    "street": "Coleman",
    "city": "Manning",
    "province": "Alberta",
    "country": "Canada"
  },
  "phone": {
    "mobile": "1-(956)517-8768",
    "home": "1-(229)275-9458",
    "work": "1-(636)233-0161"
  }
}, {
  "id": 57,
  "firstName": "Alexandro",
  "middleName": "Taite",
  "lastName": "Daniels",
  "email": "tdaniels1k@tripadvisor.com",
  "gender": "Male",
  "address": {
    "street": "Delaware",
    "city": "Salaberry-de-Valleyfield",
    "province": "Québec",
    "country": "Canada"
  },
  "phone": {
    "mobile": "1-(758)917-7812",
    "home": "1-(901)671-8530",
    "work": "1-(172)215-9387"
  }
}, {
  "id": 58,
  "firstName": "Borg",
  "middleName": "Irwin",
  "lastName": "Achrameev",
  "email": "iachrameev1l@multiply.com",
  "gender": "Male",
  "address": {
    "street": "Basil",
    "city": "Biggar",
    "province": "Saskatchewan",
    "country": "Canada"
  },
  "phone": {
    "mobile": "1-(370)417-0108",
    "home": "1-(304)155-7542",
    "work": "1-(734)852-1786"
  }
}, {
  "id": 59,
  "firstName": "Jeffy",
  "middleName": "Paolo",
  "lastName": "Leadbeatter",
  "email": "pleadbeatter1m@sogou.com",
  "gender": "Male",
  "address": {
    "street": "Union",
    "city": "Moosomin",
    "province": "Saskatchewan",
    "country": "Canada"
  },
  "phone": {
    "mobile": "1-(183)293-1759",
    "home": "1-(213)678-1076",
    "work": "1-(943)824-3983"
  }
}, {
  "id": 60,
  "firstName": "Matteo",
  "middleName": "Elisha",
  "lastName": "Roland",
  "email": "eroland1n@ucla.edu",
  "gender": "Male",
  "address": {
    "street": "4th",
    "city": "Atlanta",
    "province": "Georgia",
    "country": "United States"
  },
  "phone": {
    "mobile": "1-(404)414-9745",
    "home": "1-(989)409-7795",
    "work": "1-(740)129-7858"
  }
}, {
  "id": 61,
  "firstName": "Halli",
  "middleName": "Orsa",
  "lastName": "Rudloff",
  "email": "orudloff1o@webs.com",
  "gender": "Female",
  "address": {
    "street": "Mesta",
    "city": "Raleigh",
    "province": "North Carolina",
    "country": "United States"
  },
  "phone": {
    "mobile": "1-(919)919-9473",
    "home": "1-(985)294-0658",
    "work": "1-(585)739-1016"
  }
}, {
  "id": 62,
  "firstName": "Carrie",
  "middleName": "Moyra",
  "lastName": "Manners",
  "email": "mmanners1p@sogou.com",
  "gender": "Female",
  "address": {
    "street": "Mariners Cove",
    "city": "Washington",
    "province": "District of Columbia",
    "country": "United States"
  },
  "phone": {
    "mobile": "1-(202)219-3039",
    "home": "1-(972)175-0658",
    "work": "1-(815)316-4187"
  }
}, {
  "id": 63,
  "firstName": "Jaclin",
  "middleName": "Maryanna",
  "lastName": "Battista",
  "email": "mbattista1q@theguardian.com",
  "gender": "Female",
  "address": {
    "street": "Shopko",
    "city": "Springfield",
    "province": "Illinois",
    "country": "United States"
  },
  "phone": {
    "mobile": "1-(217)727-7671",
    "home": "1-(452)331-6557",
    "work": "1-(254)755-5954"
  }
}, {
  "id": 64,
  "firstName": "Karon",
  "middleName": "Elyssa",
  "lastName": "Iacovacci",
  "email": "eiacovacci1r@prweb.com",
  "gender": "Female",
  "address": {
    "street": "Hollow Ridge",
    "city": "Cincinnati",
    "province": "Ohio",
    "country": "United States"
  },
  "phone": {
    "mobile": "1-(513)847-0733",
    "home": "1-(386)711-4157",
    "work": "1-(207)363-3868"
  }
}, {
  "id": 65,
  "firstName": "Geoffry",
  "middleName": "Stanleigh",
  "lastName": "Carnaman",
  "email": "scarnaman1s@weather.com",
  "gender": "Male",
  "address": {
    "street": "Russell",
    "city": "Martensville",
    "province": "Saskatchewan",
    "country": "Canada"
  },
  "phone": {
    "mobile": "1-(216)235-8152",
    "home": "1-(602)762-7726",
    "work": "1-(551)583-8057"
  }
}, {
  "id": 66,
  "firstName": "Krystal",
  "middleName": "Jerry",
  "lastName": "Forth",
  "email": "jforth1t@phoca.cz",
  "gender": "Female",
  "address": {
    "street": "Waubesa",
    "city": "Saint-Bruno-de-Guigues",
    "province": "Québec",
    "country": "Canada"
  },
  "phone": {
    "mobile": "1-(583)917-3927",
    "home": "1-(534)188-2254",
    "work": "1-(941)926-3390"
  }
}, {
  "id": 67,
  "firstName": "Guntar",
  "middleName": "Jack",
  "lastName": "Clappson",
  "email": "jclappson1u@jimdo.com",
  "gender": "Male",
  "address": {
    "street": "Ryan",
    "city": "Stony Plain",
    "province": "Alberta",
    "country": "Canada"
  },
  "phone": {
    "mobile": "1-(886)989-0510",
    "home": "1-(567)390-3562",
    "work": "1-(626)571-7753"
  }
}, {
  "id": 68,
  "firstName": "Brucie",
  "middleName": "Ross",
  "lastName": "Mussard",
  "email": "rmussard1v@etsy.com",
  "gender": "Male",
  "address": {
    "street": "Clarendon",
    "city": "North Battleford",
    "province": "Saskatchewan",
    "country": "Canada"
  },
  "phone": {
    "mobile": "1-(872)710-3961",
    "home": "1-(881)673-0738",
    "work": "1-(402)304-1562"
  }
}, {
  "id": 69,
  "firstName": "Alric",
  "middleName": "Wiatt",
  "lastName": "Haylock",
  "email": "whaylock1w@hhs.gov",
  "gender": "Male",
  "address": {
    "street": "Vernon",
    "city": "Tampa",
    "province": "Florida",
    "country": "United States"
  },
  "phone": {
    "mobile": "1-(813)299-3401",
    "home": "1-(916)357-0544",
    "work": "1-(902)533-9045"
  }
}, {
  "id": 70,
  "firstName": "Eldridge",
  "middleName": "Stefan",
  "lastName": "Winkle",
  "email": "swinkle1x@huffingtonpost.com",
  "gender": "Male",
  "address": {
    "street": "Novick",
    "city": "Crossfield",
    "province": "Alberta",
    "country": "Canada"
  },
  "phone": {
    "mobile": "1-(921)330-6897",
    "home": "1-(253)805-5341",
    "work": "1-(598)864-1922"
  }
}, {
  "id": 71,
  "firstName": "Katalin",
  "middleName": "Aggie",
  "lastName": "Voisey",
  "email": "avoisey1y@sogou.com",
  "gender": "Female",
  "address": {
    "street": "Declaration",
    "city": "Pasadena",
    "province": "California",
    "country": "United States"
  },
  "phone": {
    "mobile": "1-(626)638-8883",
    "home": "1-(971)754-6288",
    "work": "1-(198)644-6802"
  }
}, {
  "id": 72,
  "firstName": "Gram",
  "middleName": "Emelen",
  "lastName": "Blaksley",
  "email": "eblaksley1z@jalbum.net",
  "gender": "Male",
  "address": {
    "street": "Hudson",
    "city": "Buffalo",
    "province": "New York",
    "country": "United States"
  },
  "phone": {
    "mobile": "1-(716)450-4259",
    "home": "1-(856)301-5699",
    "work": "1-(761)954-3581"
  }
}, {
  "id": 73,
  "firstName": "Callean",
  "middleName": "Drugi",
  "lastName": "Clemitt",
  "email": "dclemitt20@discuz.net",
  "gender": "Male",
  "address": {
    "street": "Glacier Hill",
    "city": "Chicago",
    "province": "Illinois",
    "country": "United States"
  },
  "phone": {
    "mobile": "1-(773)469-1144",
    "home": "1-(323)798-3503",
    "work": "1-(570)672-2600"
  }
}, {
  "id": 74,
  "firstName": "Nalani",
  "middleName": "Andree",
  "lastName": "Anslow",
  "email": "aanslow21@a8.net",
  "gender": "Female",
  "address": {
    "street": "Mosinee",
    "city": "Nashville",
    "province": "Tennessee",
    "country": "United States"
  },
  "phone": {
    "mobile": "1-(615)779-3901",
    "home": "1-(573)700-3854",
    "work": "1-(212)346-4959"
  }
}, {
  "id": 75,
  "firstName": "Herman",
  "middleName": "Normie",
  "lastName": "Sibthorpe",
  "email": "nsibthorpe22@nature.com",
  "gender": "Male",
  "address": {
    "street": "Glacier Hill",
    "city": "Alhambra",
    "province": "California",
    "country": "United States"
  },
  "phone": {
    "mobile": "1-(626)491-3208",
    "home": "1-(805)730-1969",
    "work": "1-(249)214-9955"
  }
}, {
  "id": 76,
  "firstName": "Fowler",
  "middleName": "Pietrek",
  "lastName": "Peeter",
  "email": "ppeeter23@independent.co.uk",
  "gender": "Male",
  "address": {
    "street": "Aberg",
    "city": "Barrie",
    "province": "Ontario",
    "country": "Canada"
  },
  "phone": {
    "mobile": "1-(110)269-0196",
    "home": "1-(515)387-8860",
    "work": "1-(913)665-3730"
  }
}, {
  "id": 77,
  "firstName": "Abeu",
  "middleName": "Dannie",
  "lastName": "Bolton",
  "email": "dbolton24@examiner.com",
  "gender": "Male",
  "address": {
    "street": "Cascade",
    "city": "Louisville",
    "province": "Kentucky",
    "country": "United States"
  },
  "phone": {
    "mobile": "1-(502)250-4223",
    "home": "1-(423)185-9445",
    "work": "1-(318)536-8668"
  }
}, {
  "id": 78,
  "firstName": "Goraud",
  "middleName": "Whittaker",
  "lastName": "Daunay",
  "email": "wdaunay25@slashdot.org",
  "gender": "Male",
  "address": {
    "street": "Fordem",
    "city": "Toledo",
    "province": "Ohio",
    "country": "United States"
  },
  "phone": {
    "mobile": "1-(419)305-0302",
    "home": "1-(485)986-4056",
    "work": "1-(818)120-4953"
  }
}, {
  "id": 79,
  "firstName": "Erna",
  "middleName": "Tammie",
  "lastName": "Hauck",
  "email": "thauck26@craigslist.org",
  "gender": "Female",
  "address": {
    "street": "Pond",
    "city": "Gainesville",
    "province": "Florida",
    "country": "United States"
  },
  "phone": {
    "mobile": "1-(352)265-1826",
    "home": "1-(872)353-3778",
    "work": "1-(512)885-2612"
  }
}, {
  "id": 80,
  "firstName": "Hazel",
  "middleName": "Darin",
  "lastName": "Huncote",
  "email": "dhuncote27@blogspot.com",
  "gender": "Male",
  "address": {
    "street": "Twin Pines",
    "city": "Pensacola",
    "province": "Florida",
    "country": "United States"
  },
  "phone": {
    "mobile": "1-(850)717-2525",
    "home": "1-(228)727-4640",
    "work": "1-(571)602-2701"
  }
}, {
  "id": 81,
  "firstName": "Marleah",
  "middleName": "Theodosia",
  "lastName": "Bonnet",
  "email": "tbonnet28@4shared.com",
  "gender": "Female",
  "address": {
    "street": "Express",
    "city": "Sacramento",
    "province": "California",
    "country": "United States"
  },
  "phone": {
    "mobile": "1-(916)569-9329",
    "home": "1-(571)447-6410",
    "work": "1-(277)722-9908"
  }
}, {
  "id": 82,
  "firstName": "Iggie",
  "middleName": "Thain",
  "lastName": "Heaysman",
  "email": "theaysman29@guardian.co.uk",
  "gender": "Male",
  "address": {
    "street": "Forest",
    "city": "Renfrew",
    "province": "Ontario",
    "country": "Canada"
  },
  "phone": {
    "mobile": "1-(893)282-7174",
    "home": "1-(650)581-7665",
    "work": "1-(217)899-3723"
  }
}, {
  "id": 83,
  "firstName": "Winfred",
  "middleName": "Briggs",
  "lastName": "Spillman",
  "email": "bspillman2a@independent.co.uk",
  "gender": "Male",
  "address": {
    "street": "Waywood",
    "city": "Lexington",
    "province": "Kentucky",
    "country": "United States"
  },
  "phone": {
    "mobile": "1-(859)803-9903",
    "home": "1-(317)705-0272",
    "work": "1-(501)223-7399"
  }
}, {
  "id": 84,
  "firstName": "Odella",
  "middleName": "Herta",
  "lastName": "Hornung",
  "email": "hhornung2b@cnn.com",
  "gender": "Female",
  "address": {
    "street": "Fordem",
    "city": "Knoxville",
    "province": "Tennessee",
    "country": "United States"
  },
  "phone": {
    "mobile": "1-(865)580-9424",
    "home": "1-(203)351-4800",
    "work": "1-(571)688-5604"
  }
}, {
  "id": 85,
  "firstName": "Stephani",
  "middleName": "Elwira",
  "lastName": "Castel",
  "email": "ecastel2c@slideshare.net",
  "gender": "Female",
  "address": {
    "street": "Holy Cross",
    "city": "Notre-Dame-de-l'Île-Perrot",
    "province": "Québec",
    "country": "Canada"
  },
  "phone": {
    "mobile": "1-(724)107-9566",
    "home": "1-(118)599-5470",
    "work": "1-(202)666-3652"
  }
}, {
  "id": 86,
  "firstName": "Modestia",
  "middleName": "Peggy",
  "lastName": "Gold",
  "email": "pgold2d@ocn.ne.jp",
  "gender": "Female",
  "address": {
    "street": "New Castle",
    "city": "Papineauville",
    "province": "Québec",
    "country": "Canada"
  },
  "phone": {
    "mobile": "1-(164)529-6843",
    "home": "1-(406)828-6520",
    "work": "1-(450)660-3437"
  }
}, {
  "id": 87,
  "firstName": "Nollie",
  "middleName": "Sandro",
  "lastName": "Sweetland",
  "email": "ssweetland2e@comsenz.com",
  "gender": "Male",
  "address": {
    "street": "Grim",
    "city": "Washington",
    "province": "District of Columbia",
    "country": "United States"
  },
  "phone": {
    "mobile": "1-(202)969-4019",
    "home": "1-(901)590-7058",
    "work": "1-(340)450-2253"
  }
}, {
  "id": 88,
  "firstName": "Cathryn",
  "middleName": "Rana",
  "lastName": "Hillatt",
  "email": "rhillatt2f@macromedia.com",
  "gender": "Female",
  "address": {
    "street": "Cody",
    "city": "Mattawa",
    "province": "Ontario",
    "country": "Canada"
  },
  "phone": {
    "mobile": "1-(191)913-2776",
    "home": "1-(202)314-3341",
    "work": "1-(295)328-5964"
  }
}, {
  "id": 89,
  "firstName": "Vanessa",
  "middleName": "Doll",
  "lastName": "Tire",
  "email": "dtire2g@twitpic.com",
  "gender": "Female",
  "address": {
    "street": "Del Sol",
    "city": "Alberton",
    "province": "Prince Edward Island",
    "country": "Canada"
  },
  "phone": {
    "mobile": "1-(128)498-1265",
    "home": "1-(896)559-3837",
    "work": "1-(502)255-7972"
  }
}, {
  "id": 90,
  "firstName": "Roddie",
  "middleName": "Brodie",
  "lastName": "Kinver",
  "email": "bkinver2h@forbes.com",
  "gender": "Male",
  "address": {
    "street": "Nobel",
    "city": "New Glasgow",
    "province": "Nova Scotia",
    "country": "Canada"
  },
  "phone": {
    "mobile": "1-(421)678-4239",
    "home": "1-(248)519-4115",
    "work": "1-(637)323-0452"
  }
}, {
  "id": 91,
  "firstName": "Karney",
  "middleName": "Mackenzie",
  "lastName": "Iorizzi",
  "email": "miorizzi2i@weather.com",
  "gender": "Male",
  "address": {
    "street": "Beilfuss",
    "city": "Frankfort",
    "province": "Kentucky",
    "country": "United States"
  },
  "phone": {
    "mobile": "1-(502)527-8001",
    "home": "1-(202)746-9032",
    "work": "1-(571)995-1982"
  }
}, {
  "id": 92,
  "firstName": "Robert",
  "middleName": "Nahum",
  "lastName": "Korous",
  "email": "nkorous2j@twitter.com",
  "gender": "Male",
  "address": {
    "street": "Fordem",
    "city": "Lancaster",
    "province": "California",
    "country": "United States"
  },
  "phone": {
    "mobile": "1-(661)640-0636",
    "home": "1-(858)788-0994",
    "work": "1-(320)908-7511"
  }
}, {
  "id": 93,
  "firstName": "Neddie",
  "middleName": "Bartolomeo",
  "lastName": "Briddle",
  "email": "bbriddle2k@usa.gov",
  "gender": "Male",
  "address": {
    "street": "Eastwood",
    "city": "Denton",
    "province": "Texas",
    "country": "United States"
  },
  "phone": {
    "mobile": "1-(940)850-6975",
    "home": "1-(265)389-4565",
    "work": "1-(633)143-9346"
  }
}, {
  "id": 94,
  "firstName": "Aimee",
  "middleName": "Lulu",
  "lastName": "Luxen",
  "email": "lluxen2l@jimdo.com",
  "gender": "Female",
  "address": {
    "street": "Oak Valley",
    "city": "Neebing",
    "province": "Ontario",
    "country": "Canada"
  },
  "phone": {
    "mobile": "1-(360)677-1559",
    "home": "1-(954)488-1525",
    "work": "1-(268)727-5779"
  }
}, {
  "id": 95,
  "firstName": "Eugenie",
  "middleName": "Shanna",
  "lastName": "Ravens",
  "email": "sravens2m@dailymotion.com",
  "gender": "Female",
  "address": {
    "street": "Meadow Valley",
    "city": "Evansville",
    "province": "Indiana",
    "country": "United States"
  },
  "phone": {
    "mobile": "1-(812)469-1817",
    "home": "1-(120)692-0973",
    "work": "1-(932)683-7932"
  }
}, {
  "id": 96,
  "firstName": "Friederike",
  "middleName": "Leandra",
  "lastName": "Bernhart",
  "email": "lbernhart2n@sbwire.com",
  "gender": "Female",
  "address": {
    "street": "Clove",
    "city": "Strathmore",
    "province": "Alberta",
    "country": "Canada"
  },
  "phone": {
    "mobile": "1-(866)119-6918",
    "home": "1-(307)701-2331",
    "work": "1-(913)783-9545"
  }
}, {
  "id": 97,
  "firstName": "Kassey",
  "middleName": "Dory",
  "lastName": "Buss",
  "email": "dbuss2o@soup.io",
  "gender": "Female",
  "address": {
    "street": "Reindahl",
    "city": "Richmond",
    "province": "British Columbia",
    "country": "Canada"
  },
  "phone": {
    "mobile": "1-(302)123-6332",
    "home": "1-(989)341-5690",
    "work": "1-(713)753-4176"
  }
}, {
  "id": 98,
  "firstName": "Millie",
  "middleName": "Dalia",
  "lastName": "Brayson",
  "email": "dbrayson2p@java.com",
  "gender": "Female",
  "address": {
    "street": "La Follette",
    "city": "Sterling",
    "province": "Virginia",
    "country": "United States"
  },
  "phone": {
    "mobile": "1-(571)110-3131",
    "home": "1-(426)403-7539",
    "work": "1-(214)536-8899"
  }
}, {
  "id": 99,
  "firstName": "Sherri",
  "middleName": "Zonnya",
  "lastName": "Cawte",
  "email": "zcawte2q@sourceforge.net",
  "gender": "Female",
  "address": {
    "street": "Jenifer",
    "city": "Norman Wells",
    "province": "Northwest Territories",
    "country": "Canada"
  },
  "phone": {
    "mobile": "1-(768)174-5641",
    "home": "1-(817)977-5741",
    "work": "1-(360)700-5492"
  }
}, {
  "id": 100,
  "firstName": "Corny",
  "middleName": "Adah",
  "lastName": "La Wille",
  "email": "alawille2r@discovery.com",
  "gender": "Female",
  "address": {
    "street": "Comanche",
    "city": "Tallahassee",
    "province": "Florida",
    "country": "United States"
  },
  "phone": {
    "mobile": "1-(850)440-4049",
    "home": "1-(181)702-9758",
    "work": "1-(315)411-6145"
  }
}]